<?xml version="1.0" encoding="utf-8"?>
<!-- Generator: Adobe Illustrator 22.1.0, SVG Export Plug-In . SVG Version: 6.00 Build 0)  -->
<svg version="1.1" id="Capa_1" xmlns="http://www.w3.org/2000/svg" xmlns:xlink="http://www.w3.org/1999/xlink" x="0px" y="0px"
	 viewBox="0 0 795.8 1500" style="enable-background:new 0 0 795.8 1500;" xml:space="preserve">
<style type="text/css">
	.st0{opacity:0.5;}
	.st1{opacity:0.15;clip-path:url(#SVGID_2_);}
	.st2{fill:#38D430;}
</style>
<title>fondo-login</title>
<g class="st0">
	<defs>
		<rect id="SVGID_1_" class="st0" width="791" height="1500"/>
	</defs>
	<clipPath id="SVGID_2_">
		<use xlink:href="#SVGID_1_"  style="overflow:visible;"/>
	</clipPath>
	<g class="st1">
		<path class="st2" d="M156.6,1500.6l25.1-83.2l218.7,84.1c0,0,0.1,0,0.1,0c0,0,0,0,0.1,0c0,0,0.1,0,0.1,0c0.1,0,0.3,0,0.4,0
			c0,0,0.1,0,0.1,0c0.2,0,0.3-0.1,0.5-0.2c0,0,0,0,0,0l145.2-98.3l71.8,98c0,0,0,0,0,0c0,0,0,0,0.1,0.1c0.1,0.1,0.2,0.2,0.4,0.3
			c0,0,0,0,0.1,0c0,0,0,0,0,0c0.2,0.1,0.3,0.1,0.5,0.1c0,0,0.1,0,0.1,0c0.1,0,0.1,0,0.2,0c0.1,0,0.2-0.1,0.3-0.1c0,0,0,0,0.1,0
			l142.1-72.5L818,1501c0.5,0.6,1.4,0.7,2,0.3c0.6-0.5,0.7-1.4,0.3-2l-54.2-70.3l109.1,15.2c0.6,0.1,1.1-0.2,1.4-0.7
			c0.3-0.5,0.3-1.1-0.1-1.6l-114.2-150.2l124.1,18.6c0.5,0.1,1.1-0.2,1.4-0.6c0.3-0.5,0.3-1.1,0-1.5l-42.3-66.1l36.1-20.6
			c0,0,0,0,0,0c0.2-0.1,0.3-0.2,0.4-0.4c0,0,0,0,0,0c0.1-0.2,0.2-0.3,0.2-0.5c0,0,0,0,0-0.1c0,0,0,0,0,0c0,0,0,0,0-0.1l5.6-161.7
			c0,0,0-0.1,0-0.1c0-0.1,0-0.2,0-0.3c0,0,0-0.1,0-0.2c0-0.1-0.1-0.1-0.1-0.1c0,0,0-0.1-0.1-0.1l-55.7-81.4l31.4-61.4
			c0,0,0-0.1,0-0.1c0-0.1,0.1-0.2,0.1-0.3c0-0.1,0-0.1,0-0.2c0-0.1,0-0.2,0-0.3c0-0.1,0-0.1,0-0.2c0,0,0,0,0,0
			c0-0.1-0.1-0.2-0.2-0.3c0,0,0,0,0-0.1c-0.1-0.1-0.2-0.2-0.3-0.3c0,0,0,0,0,0l-44.9-31.9l69.6-101.1c0,0,0,0,0,0
			c0.1-0.1,0.1-0.3,0.2-0.4c0,0,0,0,0,0c0-0.2,0.1-0.3,0-0.5l-9.4-92.7l30-217.2c0,0,0-0.1,0-0.1c0-0.1,0-0.2,0-0.2c0,0,0,0,0-0.1
			c0,0,0,0,0,0c0,0,0,0,0,0l-56.2-280.7L818.6,80.8L887.4,35c0.6-0.4,0.8-1.3,0.4-2c-0.4-0.6-1.3-0.8-2-0.4L817.7,78l-31-98.4
			c-0.2-0.6-0.7-1-1.3-1c-0.6,0-1.1,0.3-1.4,0.9l-68.7,165.7l-71.8-53.7l4.3-92.7c0.1-0.6-0.4-1.2-1-1.4c-0.6-0.2-1.3,0-1.6,0.6
			l-41.2,64L518-2.3c-0.5-0.4-1.2-0.4-1.7,0.1c-0.5,0.4-0.6,1.1-0.3,1.7l57,111.2l-22.2,34.5l-116-121.1c-0.4-0.4-1-0.5-1.5-0.3
			c-0.5,0.2-0.9,0.7-0.9,1.3v117.8L340.8,9.3c0,0-0.1-0.1-0.1-0.1c0-0.1-0.1-0.1-0.1-0.1c-0.1,0-0.1-0.1-0.2-0.1
			c-0.1,0-0.1-0.1-0.2-0.1c-0.1,0-0.1-0.1-0.2-0.1c-0.1,0-0.1,0-0.2,0c-0.1,0-0.2,0-0.2,0c0,0-0.1,0-0.1,0L219.8,19.9L141.3-8.7
			c-0.6-0.2-1.3,0-1.7,0.6l-27.9,42.8L51.4-55.7c-0.3-0.5-1-0.7-1.6-0.6s-1,0.7-1,1.3V129L-97.1,16.5c-0.5-0.4-1.2-0.4-1.7,0
			c-0.5,0.4-0.7,1.1-0.4,1.7L-43.4,142l-74.3,75.8c0,0-0.1,0.1-0.1,0.1c-0.1,0.1-0.1,0.1-0.1,0.2c0,0.1-0.1,0.2-0.1,0.3
			c0,0,0,0.1-0.1,0.1l-9.4,67.7c0,0.1,0,0.1,0,0.2c0,0.4,0.2,0.7,0.4,1L6,414.9l-131.9-20.2c-0.5-0.1-0.9,0.1-1.2,0.4
			c-0.2,0.3-0.4,0.6-0.4,1c0,0.1,0,0.2,0,0.3l22.9,94.8l-1.7,1.1c0,0,0,0,0,0c0,0,0,0,0,0c0,0,0,0,0,0c-0.1,0.1-0.2,0.2-0.3,0.3
			c0,0-0.1,0.1-0.1,0.1c-0.1,0.1-0.1,0.2-0.1,0.4c0,0,0,0.1,0,0.1c0,0.1,0,0.3,0,0.4c0,0,0,0,0,0.1c0,0,0,0.1,0,0.1
			c0,0.1,0.1,0.3,0.2,0.4c0,0,0,0,0,0.1l4.3,6.2l21.8,90.1l-24.3,47.3c-0.4,0.7-0.1,1.5,0.6,1.9l40.7,21.3l23.8,98.6l-96.4,45.4
			c-0.4,0.2-0.7,0.5-0.8,0.9c-0.1,0.4,0,0.8,0.2,1.2l55.3,79.1l-55.2,60.8c-0.2,0.3-0.4,0.6-0.4,0.9c0,0.2,0,0.3,0.1,0.4
			c0.2,0.5,0.6,0.8,1.1,0.9l67.7,12.9l-50,158.3c0,0,0,0.1,0,0.1c0,0.1,0,0.1-0.1,0.2c0,0,0,0.1,0,0.1c0,0,0,0,0,0.1
			c0,0.1,0,0.2,0,0.3c0,0.1,0,0.2,0.1,0.2c0,0,0,0.1,0.1,0.1c0,0,0,0,0,0.1c0,0,0,0,0,0.1c0,0,0,0.1,0.1,0.1c0,0,0,0,0.1,0.1
			c0.1,0.1,0.1,0.1,0.2,0.2c0,0,0,0.1,0.1,0.1l107.2,61.7l-107.5,110c-0.1,0.1-0.2,0.2-0.2,0.3c0,0,0,0,0,0c0,0,0,0,0,0
			c-0.1,0.2-0.1,0.4-0.1,0.5c0,0,0,0,0,0c0,0,0,0.1,0,0.1c0,0.2,0.1,0.4,0.1,0.5c0,0,0,0.1,0,0.1l110.6,195.5c0,0,0.1,0.1,0.1,0.1
			c0.1,0.1,0.2,0.2,0.3,0.3c0.1,0,0.1,0.1,0.2,0.1c0.2,0.1,0.3,0.1,0.5,0.1c0,0,0.1,0,0.1,0c0,0,0,0,0,0c0,0,0,0,0,0
			c0.2,0,0.4-0.1,0.6-0.1c0,0,0.1-0.1,0.1-0.1c0.1-0.1,0.3-0.2,0.4-0.3c0,0,0.1,0,0.1-0.1l75.7-115.5l83.2,125.1
			c0.3,0.5,0.8,0.7,1.4,0.6C156,1501.5,156.4,1501.1,156.6,1500.6z M182.5,1414.7l24.4-81l53.8-16.2l29.3,21.1l107.3,158.6
			L182.5,1414.7z M748.5,859l-74.6,43.9l44.1-88.4L748.5,859z M723.5,817.4l43.4,30.8l-15.9,9.4L723.5,817.4z M729.2,1005.5
			l-12.5-21.7L673,908l112.1,4.5l4,5.9L729.2,1005.5z M790.9,920.9l19.3,28.3l-75.5,53.2L790.9,920.9z M810.9,1193l-51.8,93.9
			l-93.3-164.6l94.5-8.4L810.9,1193z M767.8,1120.4l55.6,49.9l-11,19.9L767.8,1120.4z M648.3,1361.2l15.9-81.6l94.3,143.6
			L648.3,1361.2z M645.1,1362.6l-25.5,130.9l-40.3-167.9L645.1,1362.6z M645.7,1359.7l-65.6-36.9l81.4-44.3L645.7,1359.7z
			 M579,1320.2l7.3-48.5l72.2,5.2L579,1320.2z M96.2,1260.1l11.2-53.1l58.5,42.2L96.2,1260.1z M178.6,1250l-2.7,3l-2.9-2.1
			L178.6,1250z M169.1,1251.5l5,3.6L73.3,1368.4l22.2-105.3L169.1,1251.5z M178.3,1254.6l4.7-5.3l42.1-6.6l4.4,6.5L219,1284
			L178.3,1254.6z M130.2,863.4l111-79.4l-76.6,142.9L130.2,863.4z M161,926.3l-66.2-37.5l33.1-23.7L161,926.3z M177.7,694.7
			l20.6-13.5l135.5,101.1l-87.9-4.4L177.7,694.7z M241.2,776.6L113,736.9l62.3-40.7L241.2,776.6z M203.4,195.8l-30.2,17.8l-2.3-31.1
			L203.4,195.8z M209.8,195.3l38.3-22.6l45.2,56.6L209.8,195.3z M206.7,197.1l87.7,35.7L179,291.3l-5.5-74.6L206.7,197.1z
			 M556.7,1100.6l-75.3-29.4l53.8-114.9L556.7,1100.6z M539.6,966.6l60.5,176.9l-40.3-41.3L539.6,966.6z M555.6,1103.2L417.7,1207
			l62.5-133.2L555.6,1103.2z M558.3,1104.7l42.6,43.6l-179.2,59.2L558.3,1104.7z M662.1,1123.3v146.3l-56.7-120L662.1,1123.3z
			 M604.3,1147l-64.2-187.6l121.2,161.1L604.3,1147z M537.7,951.6l61.3-70l70,25.8l-6.9,209.7L537.7,951.6z M423.8,878.4l-117-66
			l31.5-26.5L423.8,878.4z M343.4,787.4l181.1,66.8l-93.1,28.3L343.4,787.4z M426.8,883.3L300,905.2l-27.2-64.3l31.6-26.6
			L426.8,883.3z M428.1,886l-80.7,131.3l-46.3-109.4L428.1,886z M434.2,884.5l94.6-28.8l67.4,24.9l-60.6,69.1L434.2,884.5z
			 M601.1,879.4l52.8-60.2l14.9,85.2L601.1,879.4z M598.2,878.3l-64.9-23.9l117.1-35.6L598.2,878.3z M528.9,852.8l-179.7-66.2
			l298.3,30.2L528.9,852.8z M345.1,783.3l190.5-63.1l114.6,93.9L345.1,783.3z M345.6,591.7l-8.5,189.6L200.9,679.6L345.6,591.7z
			 M199.5,677.2l-11.2-86.7h153.9L199.5,677.2z M347.7,779.5l138.6-93.2l46.5,31.9L347.7,779.5z M339.9,781.3l8.5-189.6l135.3,92.9
			L339.9,781.3z M354.4,592.4l194.4,48.5l-62.5,42L354.4,592.4z M350.3,588.4l102.9-81.2l95.6,130.7L350.3,588.4z M184.8,563.3
			l66.2-62.2l92.7,86.6H187.9L184.8,563.3z M185.1,587.7h-26.3l23.4-22L185.1,587.7z M546.6,429.5l-89,70.7l58-114.9L546.6,429.5z
			 M517,382.4l29.3-58.1l70.6-17.5l-7.2,72.6l-60.8,48.3L517,382.4z M548.2,431.8l33.4,47.5l-122.8,23.5L548.2,431.8z M583.4,481.8
			l46.7,66.5l-170.2-42.9L583.4,481.8z M450.7,505.6L348,586.7l-37.5-139.1L450.7,505.6z M310.4,444.5l56.7-101.1l83.3,159
			L310.4,444.5z M344.5,584.7L253,499.2l54.7-51.4L344.5,584.7z M632.5,551.8L693.3,663L461,508.6L632.5,551.8z M635.1,550.7
			l51.6-85.5l8.9,196.2L635.1,550.7z M633.4,548l-46.9-66.8l98.6-18.8L633.4,548z M584.7,478.7L550.4,430l60.4-47.9l74.2,77.5
			L584.7,478.7z M613.5,380.8l154.4-56.5l-80.3,133.8L613.5,380.8z M612.6,378.1l7.1-71.5L765,322.4L612.6,378.1z M549.8,320.5
			l19-19.5l41.7,4.5L549.8,320.5z M546.8,319.5l0.7-20.8l17.7,1.9L546.8,319.5z M571.2,298.5l64.5-66.4l55,53.6l-72.3,17.9
			L571.2,298.5z M544.1,318.5l-13.8-21.6l14.4,1.6L544.1,318.5z M543.7,323.2l-28.6,56.6l-64.4-91.6l76,8.3L543.7,323.2z
			 M450.4,285.3l37.3-50.3l37.1,58.4L450.4,285.3z M528.4,293.8l-38.9-61.2l59.9-80.7l-4.6,143.7L528.4,293.8z M448.8,282.7
			l-13.1-129.4l50.3,79.2L448.8,282.7z M446.3,285.3l-66.1,12.2l11.7-43.5l41-100.7L446.3,285.3z M388.7,255.3L377.1,298l-31.8,5.9
			l-23.2-36.1L388.7,255.3z M187.2,290.3l110.1-55.8l20.2,31.3L187.2,290.3z M376.3,301.1l-9.7,36l-19.7-30.6L376.3,301.1z
			 M379.4,300.5l62-11.4l-71.9,48.2L379.4,300.5z M320.4,265.3l-20.7-32.2l55-34.4l33.6,53.9L320.4,265.3z M176.2,291.7l-90.8-23.1
			l85.4-50.3L176.2,291.7z M319.1,268.4l23.2,36.1l-65.7,12.1l-92.3-22.9L319.1,268.4z M269.9,317.8L106.2,348l71.9-53L269.9,317.8z
			 M344,307l20.1,31.2l-80.8-20L344,307z M447.4,288.4l64.5,91.7l-141.4-40.1L447.4,288.4z M513.3,383.4l-59.9,118.7l-83.5-159.4
			L513.3,383.4z M307.7,443.6l-137.9-25.6L364,343.2L307.7,443.6z M305.4,446.1l-54.5,51.2l-81.8-76.5L305.4,446.1z M248.9,499.2
			l-64.6,60.7l-17.8-137.6L248.9,499.2z M181.8,562.2l-24.9,23.4l8.3-151.8L181.8,562.2z M150.7,586l-39.2-14.4l-1.5-33.9L150.7,586
			z M108.8,573.6l1.6,36.9l-22.8-44.7L108.8,573.6z M111.7,574.6l40.4,14.8l-38.7,25L111.7,574.6z M155.6,590.5h29.8l11.1,86
			l-82-59.5L155.6,590.5z M195.1,678.9l-25,6.6l-50.1-61.1L195.1,678.9z M190.3,683.1l-14.4,9.4l-3.7-4.6L190.3,683.1z M334.8,785.2
			l-30.6,25.7l-53-29.9L334.8,785.2z M301.8,812.9l-30.2,25.3l-23.5-55.6L301.8,812.9z M269.4,840.1l-100.1,84l75.8-141.5
			L269.4,840.1z M270.6,842.8l26.6,62.8l-127.6,22L270.6,842.8z M298.3,908.3l46.1,109.1l-175.3-86.8L298.3,908.3z M431.4,886
			l101.4,65.2l-182.3,66.4L431.4,886z M533.2,954l-54.5,116.2l-127.6-49.8L533.2,954z M477.6,1072.8l-63.3,135.1l-64.7-185.1
			L477.6,1072.8z M411.6,1208.7l-137-70.2l72.2-114.9L411.6,1208.7z M270.6,1139.6l-14.5,23L111,1057.8L270.6,1139.6z M273.1,1140.9
			l126.8,65l-141.2-42.1L273.1,1140.9z M355.7,1195.6l47.9,14.3l-158.2-3.6l12.1-40L355.7,1195.6z M234.9,1241.2l176.5-27.8
			l-37.6,67.1l-99.5,30l-41.7-61.7L234.9,1241.2z M230.6,1245.7l-2.4-3.5l3.6-0.6L230.6,1245.7z M235.8,1238.2l8.8-29l153.8,3.5
			L235.8,1238.2z M215.6,1208.5l-5.8,6.5l-4.6-6.8L215.6,1208.5z M219.3,1208.6l22.3,0.5l-8.9,29.6l-6.3,1l-15-22.2L219.3,1208.6z
			 M223.4,1240.1L186,1246l23.5-26.4L223.4,1240.1z M231.5,1252.2l40,59.1l-10.3,3.1l-39.8-28.7L231.5,1252.2z M257.8,1315.4
			l-49.9,15l12.6-41.9L257.8,1315.4z M273.2,1313.8l12.2,18.1l-21.3-15.3L273.2,1313.8z M276,1312.9l95.9-28.9l-43.9,78.5
			l-35.9-25.9L276,1312.9z M327.3,1365.5l59.6,111.4l-90.3-133.5L327.3,1365.5z M330.6,1363.5l45.2-80.6l69.6-21l98.7,137.2
			L330.6,1363.5z M377.7,1279.3l37.3-66.6l179.9-59.5L445.3,1259L377.7,1279.3z M601.6,1152L584,1268.8l-134-9.6L601.6,1152z
			 M604.2,1153.7l57,120.6l-74.4-5.4L604.2,1153.7z M664.9,1274.7v-148.2l91.6,161.5L664.9,1274.7z M666.1,1119.5l63.7-109.7
			l70.6,22.6l-40.2,78.7L666.1,1119.5z M665.1,1115.6l6.7-204.2l55.7,96.7L665.1,1115.6z M675.4,905.3l74.7-44l33,48.3L675.4,905.3z
			 M671.2,902l-14.8-84.7l59.1-4.1L671.2,902z M656.6,814.5l40.1-140.4l19.5,136.3L656.6,814.5z M699,670l112.3,66.4L718.9,809
			L699,670z M654,813.6l-115.1-94.4l156.3-49.7L654,813.6z M536.2,717.1l-47.4-32.5l63.7-42.9l139,26L536.2,717.1z M553,639
			l-93.8-128.2l231.5,153.9L553,639z M689.4,464.1l106.1,108.6l-97,91.5L689.4,464.1z M809.6,563.3l2.1,22l-12.2-12.5L809.6,563.3z
			 M797.5,574.7l13.9,14.2l-100.7,67.8L797.5,574.7z M812.2,560.8l82.5-77.9l-80.2,102.5L812.2,560.8z M797.5,570.7L691.3,462
			l108.8,4.3l9.1,93.4L797.5,570.7z M690.3,459.1L770.8,325l22.6,71.4l6.5,67.1L690.3,459.1z M772.7,321.8l74.4-124l-52.4,193.3
			L772.7,321.8z M626.5,304.5l67.3-16.7c0.1,0,0.3-0.1,0.4-0.2c0,0,0,0,0,0l54-33.6l20.9,66L626.5,304.5z M695.4,283.6l21.1-130.1
			l31,97.7L695.4,283.6z M692.5,283.5l-54.8-53.5l76.2-78.4L692.5,283.5z M633.7,230.1l-66,67.9l-20.1-2.2l4.7-145.2L633.7,230.1z
			 M487.9,230.1l-51.6-81.2h111.8L487.9,230.1z M390.3,250.5l-33.3-53.3l73.7-46.2L390.3,250.5z M298.1,230.8l-47.6-59.5l63.7-37.5
			l39,62.5L298.1,230.8z M248.7,169.1l-29.7-37.1L337.3,14.4l-23.9,116.6L248.7,169.1z M216.3,133.1l29.9,37.5L206.5,194l-35.8-14.6
			l-4.5-61.3L216.3,133.1z M168,181.3l2.5,33.8L82.7,267L52.2,134.2L168,181.3z M79.9,267.2l-100.3-25.5l70-106.4L79.9,267.2z
			 M80.6,270.3l17.5,76.3L-17.4,245.4L80.6,270.3z M83.6,271.1l90.9,23.1l-73.2,53.9L83.6,271.1z M276.5,319.5l80.6,20l-237.4,8.9
			L276.5,319.5z M358.8,342.2l-194.7,75c0,0,0,0,0,0c0,0-0.1,0-0.1,0.1c-0.1,0.1-0.2,0.1-0.3,0.2c0,0,0,0,0,0c0,0,0,0,0,0
			c0,0,0,0,0,0c0,0,0,0,0,0.1c-0.1,0.1-0.1,0.2-0.2,0.3c0,0,0,0.1-0.1,0.1c0,0,0,0,0,0c0,0.1-0.1,0.3-0.1,0.4l-8.8,160.6
			l-52.2-227.2L358.8,342.2z M152.6,583.7L109.8,533l-7.3-167.2L152.6,583.7z M107.1,534.1l1.6,36.4l-22.9-8.4L17,427.2L107.1,534.1
			z M81.9,560.7l-121.1-44.4l49.4-96.2L81.9,560.7z M83.8,564.4l26.7,52.5l-60.4,99.5L-60,556.8l19.5-38L83.8,564.4z M112.3,619.4
			l54.9,67l-93.6,24.9l-20.4,5.4L112.3,619.4z M139.1,696.7l30.1-8l4.4,5.3l-64,41.8L55.3,719L139.1,696.7z M106.5,737.8l-32.8,21.4
			l-20.6-37.9L106.5,737.8z M110,738.9l132.2,40.9l-113.3,81.1L75,761.7L110,738.9z M126.5,862.6l-34.4,24.6L-20,823.7l92.7-60.5
			L126.5,862.6z M89.6,889l-110.3,79l-31.7-45.4l30.6-96.7L89.6,889z M92.3,890.6l69.1,39.1L45.9,975.5c-0.1,0-0.1,0.1-0.2,0.1
			c0,0-0.1,0-0.1,0.1c0,0,0,0-0.1,0.1c0,0-0.1,0-0.1,0l-23.9,21.2l-40.2-27L92.3,890.6z M46.2,978.9l43.7,63.9L24,998.6L46.2,978.9z
			 M48.6,977.5l112.7-44.8l-66.2,112.8L48.6,977.5z M165.2,931.7l177.1,87.7l-244.4,27L165.2,931.7z M344.4,1022l-72.3,115.2
			L100,1049L344.4,1022z M100.8,1053.9l153.6,110.9l-36.4,40.9l-14.8-0.3L100.8,1053.9z M199.8,1205.3l-92-2.1l-10.8-150
			L199.8,1205.3z M253.3,1170.3l-10.9,36l-20.7-0.5L253.3,1170.3z M201.8,1208.2l6.1,9l-26.3,29.5l-11.8,1.8l-58.9-42.4
			L201.8,1208.2z M93.2,1260.6l-63.5,10L17.8,1242l86.7-35.1L93.2,1260.6z M-6.1,1248.7l-0.4-57.8l20.6,49.6L-6.1,1248.7z
			 M15.2,1243.1l11.6,27.9l-32.8,5.2l-0.2-24.4L15.2,1243.1z M92.6,1263.5l-22.2,105l-39.6-95.3L92.6,1263.5z M176.4,1256.7
			l41.7,30.1l-13.5,44.6l-129.5,39L176.4,1256.7z M401.4,1498.1L331,1366.4l212.5,35.5L401.4,1498.1z M548.3,1400.2L548.3,1400.2
			l-99.5-138.4l134.7,9.7l-7.7,51.1c0,0,0,0,0,0c0,0.1,0,0.1,0,0.2c0,0.1,0,0.2,0,0.3c0,0,0,0,0,0.1l40.9,170.5L548.3,1400.2z
			 M621.7,1497.6l26-133.5l112.2,63L621.7,1497.6z M872.2,1440.9l-108-15l-3.6-131.8L872.2,1440.9z M761.3,1422.3l-95-144.5
			l91.4,13.3L761.3,1422.3z M883.8,1307.1L763.3,1289l79.8-45.5L883.8,1307.1z M762.8,1286.1l49.8-90.4l29,45.4L762.8,1286.1z
			 M844.1,1239.7l-29.9-46.8l11.4-20.6l38.1,34.2l15,13.5L844.1,1239.7z M879.7,1217.2l-37.3-33.5l-15.5-13.9l58.1-105.4
			L879.7,1217.2z M824.8,1167.8l-61.2-55l119.9-51.4L824.8,1167.8z M882.6,1058.7L764,1109.6l39-76.4L882.6,1058.7z M883.2,1056
			l-78.8-25.2l26.3-51.6L883.2,1056z M828.9,976.5l-27.3,53.3l-69.4-22.2l79.6-56.1L828.9,976.5z M830.3,973.7l-16.2-23.7l44.3-31.3
			L830.3,973.7z M858.1,915.5l-45.6,32.1l-19.9-29.2l3.8-5.5L858.1,915.5z M793,912.8l-2.1,3.1l-2.3-3.3L793,912.8z M857.6,912.6
			l-59.4-2.4l18.4-26.7L857.6,912.6z M814.3,881.9l-19.4,28.2l-8.3-0.3l-34.1-49.9l16.8-9.9L814.3,881.9z M815.9,879.6L772,848.4
			l109.9-64.6L815.9,879.6z M769.5,846.6l-48.1-34.2l157.6-30.2L769.5,846.6z M723.3,809.2L814,738l68.8,40.7L723.3,809.2z
			 M876.4,691.8l8.6,84.9l-68.6-40.6l59.8-47L876.4,691.8z M873.7,687.5l-60,47.1l-110.2-65.2L873.7,687.5z M701.2,666.4l111.9-75.3
			l61.4,93.7L701.2,666.4z M876.4,682.6l-61.2-93.4l89.9-115.1L876.4,682.6z M903.9,470.4l-92.1,86.9l-8.8-90.9L903.9,470.4z
			 M802.7,463.6l-6.3-64.7l105.8,68.7L802.7,463.6z M905.2,466.1l-108.9-70.6l54.5-201L905.2,466.1z M771.6,318.2l-20.8-65.7
			l96.1-59.8L771.6,318.2z M847.7,188.8l-97.8,60.9l-31.7-100.1L847.7,188.8z M785.2-15.8l30.1,95.5l-96.2,64.1L785.2-15.8z
			 M816.2,82.5l32.7,103.8L719.2,147L816.2,82.5z M713.9,147.6l-76.6,78.8L643.4,95L713.9,147.6z M644.8,4l-4,85.5l-34.4-25.7
			L644.8,4z M521.2,3.6l81.4,60.9L574.7,108L521.2,3.6z M604.9,66.2l35.8,26.8l-6.2,131.8l-58.4-113.9L604.9,66.2z M574.4,113.6
			l56.1,109.5l-77.8-75.8L574.4,113.6z M435.2,28.6l112.5,117.5H435.2V28.6z M431.8,147.1l-76.2,47.7l-39.5-63.2l24.2-117.9
			L431.8,147.1z M335.9,11.9L216.8,130.2l-50-14.9l53.8-92.7L335.9,11.9z M141.4-5.7l76.1,27.8l-53,91.4l-51-76.3L141.4-5.7z
			 M51.6-50.3l58.5,87.5l-58.5,89.9V-50.3z M111.8,39.8l51.4,76.9l4.6,61.6l-115.5-47L111.8,39.8z M-94.4,22.1l141,108.7l-87.4,9.9
			L-94.4,22.1z M47.4,133.6L-22,239l-18-95.5L47.4,133.6z M-114,218l71.4-72.8l18.1,95.6L-114,218z M-124.6,285.9l9.1-65.4
			l91.6,23.3L8,412.9L-124.6,285.9z M-20.6,246.4l118.8,104l-87,64.1L-20.6,246.4z M99.1,353.2l7.7,176.3L12.3,417.2L99.1,353.2z
			 M-124.2,397.8l130.6,20L-102,489.5L-124.2,397.8z M-101.1,493.6l-0.3-1.1L6.5,421.1l-48.4,94.2L-101.1,493.6z M-99.7,499.4
			l-0.6-2.5l57.1,21l-18.7,36.4L-99.7,499.4z M-97.8,507l34.6,50.1l-15.3,29.8L-97.8,507z M-101.7,638l22.2-43.2l15.1,62.7
			L-101.7,638z M-61.1,659.2L-77.5,591l16.1-31.3L45.8,715.1L-61.1,659.2z M-60.2,662.9l107.2,56l-84.1,39.6L-60.2,662.9z
			 M49.6,720.8l21.7,40l-93.1,60.8l-14.6-60.3L49.6,720.8z M-133.3,807l94.4-44.5l14.7,60.9l-55.1,60.7L-133.3,807z M-26,829.5
			l-28.5,90.2l-23.2-33.2L-26,829.5z M-132.7,947.2l53.1-58.5l24.1,34.4l-11.6,36.6L-132.7,947.2z M-64.4,960.2l10.8-34.3l29.3,41.9
			L-64.4,960.2z M-65.2,962.9l43.6,8.3l41,27.6l-133.3,117.9L-65.2,962.9z M21.8,1000.5l70.2,47.2l-202.6,69.8L21.8,1000.5z
			 M-113.3,1121.5L91.3,1051l-99.6,130.9L-113.3,1121.5z M-5.4,1182.8l99.5-130.8l10.9,151L-5.4,1182.8z M101.5,1205.1l-84.7,34.3
			l-22.4-53.8L101.5,1205.1z M-9.3,1187.2l0.4,62.7l-102.1,41.3L-9.3,1187.2z M-8.9,1252.9l0.1,23.8l-96.1,15.1L-8.9,1252.9z
			 M-114.5,1296.1l105.7-16.6l1.3,205.7L-114.5,1296.1z M-4.7,1485.9L-5.9,1279l33.9-5.3l41.3,99.4L-4.7,1485.9z M75.2,1373.4
			l128.5-38.7l-23.8,79L75.2,1373.4z M74.5,1376.2l104.6,40.2l-24.3,80.5L74.5,1376.2z"/>
	</g>
</g>
</svg>
