<?xml version="1.0" encoding="utf-8"?>
<!-- Generator: Adobe Illustrator 23.0.1, SVG Export Plug-In . SVG Version: 6.00 Build 0)  -->
<svg version="1.1" xmlns="http://www.w3.org/2000/svg" xmlns:xlink="http://www.w3.org/1999/xlink" x="0px" y="0px"
	 viewBox="0 0 38 38" style="enable-background:new 0 0 38 38;" xml:space="preserve">
<style type="text/css">
	.st0{fill:none;}
	.st1{display:none;}
	.st2{display:inline;}
	.st3{fill:none;stroke:#38D430;stroke-width:0.25;stroke-miterlimit:10;}
	.st4{fill:none;stroke:#38D430;stroke-width:0.75;stroke-miterlimit:10;}
	.st5{opacity:0.69;}
	.st6{fill-rule:evenodd;clip-rule:evenodd;}
</style>
<g id="Margen">
	<rect x="-3" y="-3" class="st0" width="44" height="44"/>
</g>
<g id="Mi_perfil" class="st1">
	<g class="st2">
		<path class="st3" d="M34.27,19c0,8.44-6.84,15.27-15.27,15.27c-8.43,0-15.27-6.84-15.27-15.27c0-8.43,6.84-15.27,15.27-15.27
			C27.43,3.73,34.27,10.57,34.27,19z"/>
		<path class="st4" d="M35.81,19c0,9.29-7.53,16.81-16.81,16.81C9.71,35.81,2.19,28.29,2.19,19C2.19,9.72,9.71,2.19,19,2.19
			C28.29,2.19,35.81,9.72,35.81,19z"/>
		<g class="st5">
			<path class="st6" d="M18.96,29.6c-0.93,0.01-1.9-0.05-2.85-0.16c-1.09-0.12-2.18-0.31-3.24-0.62c-0.78-0.23-1.54-0.51-2.23-0.94
				c-0.41-0.25-0.78-0.54-1.03-0.96c-0.13-0.22-0.21-0.45-0.21-0.71c0-1.06,0.23-2.08,0.71-3.03c0.46-0.93,1.1-1.72,1.92-2.37
				c0.88-0.69,1.87-1.13,2.96-1.34c0.11-0.02,0.19,0,0.28,0.06c0.83,0.59,1.74,0.97,2.76,1.08c0.73,0.08,1.46,0.08,2.19-0.03
				c0.72-0.11,1.39-0.35,2.02-0.72c0.2-0.12,0.39-0.26,0.58-0.38c0.04-0.02,0.09-0.04,0.13-0.03c0.68,0.11,1.32,0.32,1.92,0.63
				c0.62,0.31,1.17,0.71,1.67,1.19c0.51,0.49,0.93,1.05,1.27,1.67c0.36,0.68,0.62,1.39,0.73,2.15c0.06,0.39,0.08,0.8,0.09,1.2
				c0,0.32-0.16,0.6-0.36,0.85c-0.29,0.36-0.66,0.62-1.05,0.84c-0.93,0.52-1.94,0.83-2.97,1.07c-0.71,0.16-1.43,0.28-2.15,0.37
				C21.05,29.55,20.02,29.61,18.96,29.6z"/>
			<path class="st6" d="M19.09,19.4c-0.88,0.01-1.62-0.23-2.31-0.64c-0.82-0.49-1.46-1.17-1.96-1.98c-0.45-0.73-0.76-1.51-0.89-2.36
				c-0.15-0.98-0.06-1.94,0.33-2.86c0.33-0.78,0.81-1.44,1.46-1.97c0.7-0.58,1.51-0.95,2.41-1.11c1-0.17,1.98-0.06,2.91,0.35
				c0.88,0.38,1.6,0.96,2.15,1.74c0.4,0.56,0.68,1.17,0.83,1.84c0.25,1.1,0.13,2.18-0.27,3.23c-0.31,0.82-0.76,1.55-1.36,2.18
				c-0.57,0.6-1.23,1.07-2.02,1.35C19.94,19.31,19.48,19.4,19.09,19.4z"/>
		</g>
	</g>
</g>
<g id="Personas_autorizadas" class="st1">
	<g class="st2">
		<path class="st3" d="M34.27,19c0,8.44-6.84,15.27-15.27,15.27c-8.43,0-15.27-6.84-15.27-15.27c0-8.43,6.84-15.27,15.27-15.27
			C27.43,3.73,34.27,10.57,34.27,19z"/>
		<path class="st4" d="M35.81,19c0,9.29-7.53,16.81-16.81,16.81C9.71,35.81,2.19,28.29,2.19,19C2.19,9.72,9.71,2.19,19,2.19
			C28.29,2.19,35.81,9.72,35.81,19z"/>
		<path class="st5" d="M17.79,17.79c0-0.21,0-0.36,0-0.51c0-2.28,0.01-4.57-0.01-6.85c0-0.35,0.1-0.44,0.44-0.42
			c0.54,0.03,1.08,0.02,1.62,0c0.31-0.02,0.39,0.09,0.39,0.39c-0.01,2.29-0.01,4.59-0.01,6.89c0,0.15,0,0.3,0,0.5
			c0.18,0,0.33,0,0.48,0c2.3,0,4.59,0.01,6.89-0.01c0.32,0,0.43,0.08,0.41,0.41c-0.03,0.52-0.03,1.05,0,1.58
			c0.02,0.34-0.07,0.46-0.44,0.46c-2.28-0.02-4.57-0.01-6.85-0.01c-0.15,0-0.3,0-0.49,0c0,0.19,0,0.34,0,0.49
			c0,2.28-0.01,4.57,0.01,6.85c0,0.37-0.11,0.46-0.45,0.44c-0.54-0.03-1.08-0.02-1.62,0c-0.29,0.01-0.37-0.09-0.37-0.37
			c0.01-2.3,0.01-4.59,0.01-6.89c0-0.15,0-0.31,0-0.52c-0.17,0-0.32,0-0.46,0c-2.29,0-4.59-0.01-6.89,0.01
			c-0.33,0-0.45-0.08-0.43-0.43c0.03-0.5,0.01-1,0.01-1.5c0-0.51,0-0.51,0.49-0.51c2.26,0,4.51,0,6.77,0
			C17.43,17.79,17.58,17.79,17.79,17.79z"/>
	</g>
</g>
<g id="Formas_de_pago" class="st1">
	<g class="st2">
		<path class="st3" d="M34.27,19c0,8.44-6.84,15.27-15.27,15.27c-8.43,0-15.27-6.84-15.27-15.27c0-8.43,6.84-15.27,15.27-15.27
			C27.43,3.73,34.27,10.57,34.27,19z"/>
		<path class="st4" d="M35.81,19c0,9.29-7.53,16.81-16.81,16.81C9.71,35.81,2.19,28.29,2.19,19C2.19,9.72,9.71,2.19,19,2.19
			C28.29,2.19,35.81,9.72,35.81,19z"/>
		<g>
			<g class="st5">
				<path d="M17.41,12.22c-0.19-0.19-0.41-0.28-0.68-0.28H7.15c-0.26,0-0.49,0.09-0.68,0.28c-0.19,0.19-0.28,0.41-0.28,0.68v7.28
					c0,0.26,0.09,0.49,0.28,0.68c0.19,0.19,0.41,0.28,0.68,0.28h9.59c0.26,0,0.49-0.09,0.68-0.28c0.19-0.19,0.28-0.41,0.28-0.68
					V12.9C17.69,12.63,17.6,12.41,17.41,12.22L17.41,12.22z M16.93,20.18c0,0.05-0.02,0.1-0.06,0.13c-0.04,0.04-0.08,0.06-0.13,0.06
					H7.15c-0.05,0-0.1-0.02-0.13-0.06c-0.04-0.04-0.06-0.08-0.06-0.13v-3.64h9.97V20.18z M16.93,14.24H6.96V12.9
					c0-0.05,0.02-0.1,0.06-0.13c0.04-0.04,0.08-0.06,0.13-0.06h9.59c0.05,0,0.1,0.02,0.13,0.06c0.04,0.04,0.06,0.08,0.06,0.13V14.24
					z M16.93,14.24"/>
				<rect x="7.72" y="18.84" width="1.53" height="0.77"/>
				<rect x="10.02" y="18.84" width="2.3" height="0.77"/>
			</g>
			<g class="st5">
				<path d="M30.73,16.13c0,0.81-2.53,1.46-5.65,1.46c-3.12,0-5.64-0.66-5.64-1.46c0-0.81,2.53-1.46,5.64-1.46
					C28.2,14.67,30.73,15.32,30.73,16.13L30.73,16.13z M30.73,16.13"/>
				<path d="M21.09,19.15c1.13,0.33,2.55,0.53,4,0.51c3.2-0.03,4.7-0.77,4.7-0.77c0.61-0.26,0.96-0.54,0.96-0.8V16.9
					c0-0.01,0-0.03,0-0.04c-0.2,0.33-0.69,0.58-1.14,0.74v0.75c0,0.1-0.08,0.19-0.19,0.19c-0.1,0-0.19-0.08-0.19-0.19v-0.63
					c-0.11,0.03-0.22,0.06-0.3,0.08v0.91c0,0.14-0.11,0.25-0.25,0.25c-0.14,0-0.25-0.11-0.25-0.25v-0.8
					c-0.94,0.18-2.09,0.28-3.34,0.28c-2.97,0-5.4-0.59-5.65-1.34c0,0.01,0,0.03,0,0.04v1.21C19.43,18.45,20.05,18.84,21.09,19.15
					L21.09,19.15z M21.09,19.15"/>
				<path d="M31.81,20.08c-0.2,0.33-0.69,0.58-1.14,0.74v0.75c0,0.1-0.08,0.19-0.19,0.19c-0.11,0-0.19-0.08-0.19-0.19v-0.63
					c-0.11,0.03-0.22,0.06-0.3,0.08v0.91c0,0.14-0.11,0.25-0.25,0.25c-0.14,0-0.25-0.11-0.25-0.25v-0.81
					c-0.94,0.18-2.09,0.28-3.34,0.28c-2.97,0-5.4-0.59-5.65-1.34c0,0.01,0,0.03,0,0.04v1.21c0,0.35,0.62,0.74,1.66,1.04
					c1.13,0.33,2.55,0.53,4,0.51c3.2-0.03,4.7-0.77,4.7-0.77c0.61-0.26,0.96-0.54,0.96-0.8v-1.19
					C31.81,20.11,31.81,20.1,31.81,20.08L31.81,20.08z M31.81,20.08"/>
				<path d="M24.96,24.59c-1.25,0-2.4-0.1-3.34-0.28v0.8c0,0.14-0.11,0.25-0.25,0.25c-0.14,0-0.25-0.11-0.25-0.25V24.2
					c-0.09-0.02-0.19-0.05-0.3-0.08v0.63c0,0.1-0.08,0.19-0.19,0.19c-0.1,0-0.19-0.08-0.19-0.19V24c-0.45-0.17-0.94-0.41-1.14-0.74
					c0,0.01,0,0.03,0,0.04v1.19c0,0.26,0.35,0.55,0.96,0.8c0,0,1.5,0.75,4.7,0.78c1.45,0.01,2.87-0.18,4-0.52
					c1.04-0.3,1.66-0.69,1.66-1.04v-1.21c0-0.01,0-0.03,0-0.04C30.36,24,27.92,24.59,24.96,24.59L24.96,24.59z M24.96,24.59"/>
				<path d="M25.27,20.22c-1.45,0.04-2.87-0.18-4-0.51c-0.28-0.08-0.53-0.17-0.75-0.26c0.11,0.78,2.59,1.41,5.64,1.41
					c3.12,0,5.65-0.65,5.65-1.46c0-0.29-0.32-0.56-0.88-0.78v0.04c0,0.27-0.38,0.58-1.05,0.84C29.88,19.48,28.41,20.13,25.27,20.22
					L25.27,20.22z M25.27,20.22"/>
				<path d="M24.97,24.02c3.05,0,5.53-0.62,5.64-1.41c-0.22,0.09-0.47,0.18-0.75,0.26c-1.13,0.33-2.55,0.55-4,0.52
					c-3.14-0.09-4.61-0.74-4.61-0.74c-0.67-0.27-1.05-0.57-1.05-0.84v-0.04c-0.56,0.23-0.88,0.5-0.88,0.79
					C19.32,23.36,21.85,24.02,24.97,24.02L24.97,24.02z M24.97,24.02"/>
			</g>
		</g>
	</g>
</g>
<g id="Historial" class="st1">
	<g class="st2">
		<path class="st3" d="M34.27,19c0,8.44-6.84,15.27-15.27,15.27c-8.43,0-15.27-6.84-15.27-15.27c0-8.43,6.84-15.27,15.27-15.27
			C27.43,3.73,34.27,10.57,34.27,19z"/>
		<path class="st4" d="M35.81,19c0,9.29-7.53,16.81-16.81,16.81C9.71,35.81,2.19,28.29,2.19,19C2.19,9.72,9.71,2.19,19,2.19
			C28.29,2.19,35.81,9.72,35.81,19z"/>
		<g class="st5">
			<path d="M29.44,17.64c-0.07-0.14-0.21-0.23-0.36-0.23H27.9c-0.75-4.07-4.33-7.17-8.62-7.17c-4.83,0-8.76,3.93-8.76,8.76
				c0,4.83,3.93,8.76,8.76,8.76c3.12,0,6.03-1.68,7.59-4.38c0.22-0.38,0.09-0.87-0.29-1.09c-0.38-0.22-0.87-0.09-1.09,0.29
				c-1.28,2.21-3.66,3.58-6.21,3.58c-3.95,0-7.17-3.22-7.17-7.17c0-3.95,3.22-7.17,7.17-7.17c3.4,0,6.26,2.39,6.99,5.57H25.1
				c-0.16,0-0.3,0.09-0.36,0.23c-0.07,0.14-0.05,0.3,0.06,0.42l1.99,2.39c0.08,0.09,0.19,0.14,0.31,0.14c0.12,0,0.23-0.05,0.31-0.14
				l1.99-2.39C29.48,17.94,29.51,17.78,29.44,17.64L29.44,17.64z M29.44,17.64"/>
			<path d="M19.28,13.38c-0.44,0-0.79,0.36-0.79,0.8v4.83c-0.36,0.25-0.6,0.67-0.6,1.14c0,0.77,0.63,1.39,1.4,1.39
				c0.21,0,0.41-0.05,0.59-0.13l2.77,1.6c0.13,0.07,0.26,0.11,0.4,0.11c0.28,0,0.54-0.14,0.69-0.4c0.22-0.38,0.09-0.87-0.29-1.09
				l-2.77-1.6c-0.04-0.42-0.26-0.79-0.59-1.02v-4.83C20.08,13.74,19.72,13.38,19.28,13.38L19.28,13.38z M19.28,20.75
				c-0.33,0-0.6-0.27-0.6-0.6c0-0.33,0.27-0.6,0.6-0.6c0.33,0,0.6,0.27,0.6,0.6C19.88,20.48,19.61,20.75,19.28,20.75L19.28,20.75z
				 M19.28,19.6"/>
		</g>
	</g>
</g>
<g id="Notificaciones">
	<g>
		<path class="st3" d="M34.27,19c0,8.44-6.84,15.27-15.27,15.27c-8.43,0-15.27-6.84-15.27-15.27c0-8.43,6.84-15.27,15.27-15.27
			C27.43,3.73,34.27,10.57,34.27,19z"/>
		<path class="st4" d="M35.81,19c0,9.29-7.53,16.81-16.81,16.81C9.71,35.81,2.19,28.29,2.19,19C2.19,9.72,9.71,2.19,19,2.19
			C28.29,2.19,35.81,9.72,35.81,19z"/>
		<g class="st5">
			<path d="M10.23,26.19c0-0.34,0-0.67,0-1.01c0.64-0.64,1.29-1.28,1.94-1.92c0.1-0.1,0.14-0.2,0.14-0.34c0-1.88-0.01-3.76,0-5.64
				c0-0.23,0.01-0.46,0.05-0.69c0.42-2.7,1.93-4.52,4.49-5.47c0.2-0.07,0.41-0.13,0.62-0.2c0-0.23,0-0.46,0-0.69
				c-0.01-0.44,0.17-0.81,0.48-1.12c0.23-0.23,0.52-0.35,0.82-0.45c0.16,0,0.32,0,0.48,0c0.03,0.01,0.06,0.03,0.09,0.04
				c0.73,0.2,1.2,0.8,1.21,1.55c0,0.17,0.01,0.35,0,0.53c-0.01,0.12,0.05,0.16,0.15,0.19c0.2,0.06,0.4,0.12,0.6,0.19
				c1.7,0.63,2.96,1.75,3.76,3.38c0.47,0.96,0.65,1.98,0.66,3.03c0.01,1.79,0,3.57,0.01,5.36c0,0.09,0.02,0.2,0.08,0.25
				c0.66,0.67,1.32,1.32,1.99,1.98c0,0.34,0,0.67,0,1.01c-0.08,0.01-0.16,0.02-0.24,0.02c-5.69,0-11.38,0-17.07,0
				C10.39,26.21,10.31,26.2,10.23,26.19z"/>
			<path class="st6" d="M16.95,27.25c1.37,0,2.73,0,4.11,0c-0.03,0.72-0.32,1.3-0.91,1.69c-0.69,0.46-1.42,0.49-2.16,0.09
				C17.34,28.68,16.91,27.95,16.95,27.25z"/>
		</g>
	</g>
</g>
</svg>
